<?xml version="1.0" encoding="UTF-8"?>
<svg width="18px" height="18px" viewBox="0 0 18 18" version="1.1" xmlns="http://www.w3.org/2000/svg" xmlns:xlink="http://www.w3.org/1999/xlink">
    <!-- Generator: Sketch 43 (38999) - http://www.bohemiancoding.com/sketch -->
    <title>user</title>
    <desc>Created with Sketch.</desc>
    <defs></defs>
    <g id="Page-1" stroke="none" stroke-width="1" fill="none" fill-rule="evenodd">
        <g id="06" transform="translate(-1178.000000, -1187.000000)" stroke="#FFFFFF" fill-rule="nonzero">
            <g id="03" transform="translate(182.000000, 791.000000)">
                <g id="user" transform="translate(996.000000, 396.000000)">
                    <path d="M14.5494349,12.8750132 C14.662989,12.9141368 14.8470633,12.9947471 15.0811285,13.1288581 C15.5614336,13.4040557 16.0453631,13.7963404 16.5002634,14.3272604 C16.8729512,14.7622292 17.2092753,15.2723083 17.5,15.8643371 L17.5,16.8749854 C17.5,17.2205439 17.2207196,17.4998115 16.8751368,17.4998115 L1.12504869,17.4998115 C0.779318009,17.4998115 0.5,17.2205444 0.5,16.8749854 L0.5,15.8643345 C0.790719663,15.2723002 1.12702903,14.7622242 1.49969451,14.3272659 C1.95461581,13.7963023 2.43856513,13.4040105 2.91888836,13.1288308 C3.15297471,12.9947215 3.33706077,12.9141229 3.45061269,12.8750132 L4.50012057,12.8750132 C6.01880816,12.8750132 7.25010665,11.6436586 7.25010665,10.1249158 L7.25010665,9.37785115 L7.25010665,9.19657975 L7.13393823,9.05742437 C6.71532487,8.55597746 6.40012059,7.99604082 6.21215261,7.41012879 C6.20307222,7.38200101 6.20307222,7.38200101 6.19312084,7.34841758 C6.1896241,7.33655261 6.1896241,7.33655261 6.18580319,7.32365272 C6.11022366,7.06930006 6.03116752,6.91543944 5.82786805,6.77512389 C5.56229361,6.55481225 5.47262788,6.06788322 5.66310218,5.72234526 C5.67713247,5.69497411 5.68191018,5.68733355 5.69978468,5.66126554 C5.70055894,5.66013642 5.70055894,5.66013642 5.70134866,5.65898484 C5.8402048,5.4565005 5.89945679,5.32356075 5.87256105,5.08709964 C5.87582676,5.12302717 5.87582676,5.12302717 5.87588255,5.10093785 C5.87633964,4.91268847 5.87619791,4.76233523 5.87550003,4.42466238 C5.87416227,3.77738339 5.8747699,3.49063221 5.88001362,3.1339411 C5.90454179,2.55618531 6.0552701,2.03167207 6.33162912,1.62617466 C6.64898109,1.15192148 7.17760771,0.801752816 7.78541988,0.648358339 C8.49343371,0.468256533 9.26105294,0.453121403 10.0182799,0.59757239 C10.6011851,0.708406815 11.1061027,0.961223998 11.4560539,1.33111639 C11.8786788,1.77748277 12.1055728,2.44699248 12.1225409,3.21180198 C12.1245664,3.54317529 12.1248885,3.8706174 12.1241679,4.38772978 C12.1240351,4.47986473 12.1240351,4.47986473 12.1238936,4.57204465 C12.1234269,4.87604877 12.1232711,5.01138086 12.1232711,5.18044425 C12.1142049,5.36545185 12.1696137,5.47941434 12.2905501,5.64788933 C12.2932652,5.65167102 12.2932652,5.65167102 12.2957023,5.6550696 C12.3099323,5.67542692 12.307509,5.67180799 12.3058086,5.66877283 C12.5172179,6.00844554 12.4629414,6.47896812 12.1961472,6.74571633 C12.1818514,6.76059464 12.1809622,6.76140582 12.1504857,6.78805081 C12.148432,6.78982142 12.148432,6.78982142 12.1463023,6.79165755 C11.9659673,6.94714001 11.8763437,7.05648506 11.8349684,7.2803514 C11.6379439,7.92658495 11.3059593,8.55888294 10.8673343,9.08021188 L10.7499304,9.21975253 L10.7499304,9.40211276 L10.7499304,10.1249158 C10.7499304,11.6436611 11.9812685,12.8750132 13.4999907,12.8750132 L14.5494349,12.8750132 L14.5494349,12.8750132 Z" id="Shape"></path>
                </g>
            </g>
        </g>
    </g>
</svg>