<?xml version="1.0" encoding="UTF-8"?>
<svg width="17px" height="16px" viewBox="0 0 17 16" version="1.1" xmlns="http://www.w3.org/2000/svg" xmlns:xlink="http://www.w3.org/1999/xlink">
    <!-- Generator: Sketch 43 (38999) - http://www.bohemiancoding.com/sketch -->
    <title>Group 14</title>
    <desc>Created with Sketch.</desc>
    <defs></defs>
    <g id="Page-1" stroke="none" stroke-width="1" fill="none" fill-rule="evenodd">
        <g id="02" transform="translate(-1016.000000, -2129.000000)" fill-rule="nonzero" fill="#FFFFFF">
            <g id="banner">
                <g id="02" transform="translate(49.000000, 1172.000000)">
                    <g id="Group-9" transform="translate(1.000000, 375.000000)">
                        <g id="photo" transform="translate(49.000000, 320.000000)">
                            <g id="01" transform="translate(657.333333, 0.000000)">
                                <g id="thumbs-up-hand-symbol" transform="translate(0.000000, 262.000000)">
                                    <g id="Group-14" transform="translate(260.000000, 0.000000)">
                                        <path d="M15.4499643,8.71147522 C15.8166081,8.29181258 16,7.79553264 16,7.22253038 C16,6.70290473 15.8097431,6.25328119 15.4305253,5.87334475 C15.050537,5.4934433 14.6006033,5.30359759 14.0806192,5.30359759 L11.3107567,5.30359759 C11.3373758,5.21035478 11.364065,5.13041237 11.3906842,5.06380536 C11.4170581,4.99719836 11.4541148,4.92383615 11.5005932,4.84389374 C11.5471067,4.76391633 11.5805558,4.70392453 11.6004851,4.66402332 C11.7204464,4.43763651 11.8122825,4.25097588 11.8756781,4.10453147 C11.9389686,3.95780705 12.0019789,3.75802104 12.0655146,3.50485841 C12.1289453,3.25183579 12.1604679,2.99856816 12.1604679,2.74540554 C12.1604679,2.58559073 12.1585416,2.45556181 12.1553893,2.3557038 C12.152272,2.25577579 12.1352848,2.10583128 12.1055484,1.90594026 C12.0753567,1.70615424 12.0352879,1.53958422 11.985412,1.40640521 C11.935326,1.2731912 11.8552584,1.12317668 11.7454544,0.956746671 C11.6354052,0.790001649 11.5021343,0.655282591 11.3453265,0.55195948 C11.1885538,0.44870637 10.9886299,0.362113762 10.7453099,0.292216657 C10.5017447,0.22224955 10.226902,0.187283497 9.92004623,0.187283497 C9.74674156,0.187283497 9.59686875,0.250600404 9.47007754,0.377199216 C9.33677164,0.510413228 9.22325498,0.676948244 9.13001791,0.876734261 C9.03664073,1.07662528 8.97159894,1.2498455 8.93489254,1.39646491 C8.89822116,1.54301433 8.85650615,1.74626545 8.81002771,2.00600827 C8.7498194,2.2859467 8.70502218,2.48734277 8.67483046,2.61058148 C8.64488391,2.73382019 8.58639184,2.89535006 8.49980955,3.09517107 C8.41305214,3.2951321 8.30983289,3.45491191 8.18980154,3.57489552 C7.96984331,3.79470214 7.63321614,4.19444918 7.17977995,4.77399664 C6.8530299,5.20030948 6.51640274,5.60334661 6.16975837,5.98310805 C5.82304395,6.36293949 5.56974173,6.55943541 5.40978166,6.57277081 C5.24323685,6.58607121 5.09987873,6.65435827 4.97984738,6.77766698 C4.85981603,6.90090569 4.79981787,7.04584506 4.79981787,7.21234507 L4.79981787,13.617888 C4.79981787,13.7911082 4.8631084,13.9392677 4.98979453,14.0625064 C5.11641062,14.1858851 5.26642353,14.2508121 5.43976323,14.2574973 C5.67306606,14.2641825 6.19973994,14.4105919 7.01978486,14.6973205 C7.53304408,14.8702607 7.93464298,15.0020397 8.22465161,15.0918524 C8.51459018,15.1816651 8.91986673,15.278338 9.43946552,15.3817311 C9.95955465,15.4849492 10.4394699,15.5367158 10.8793513,15.5367158 L11.0493987,15.5367158 L11.8094454,15.5367158 L12.1693643,15.5367158 C13.0562373,15.5234154 13.7126095,15.2634976 14.1394265,14.7573123 C14.5259646,14.2975735 14.6892171,13.6946453 14.629429,12.9484928 C14.8893861,12.7020154 15.0695206,12.389036 15.1693775,12.0092045 C15.2825439,11.6030523 15.2825439,11.2132806 15.1693775,10.8402743 C15.475988,10.4338771 15.6193462,9.97753335 15.5992067,9.4712081 C15.6000473,9.25780668 15.5501714,9.00471405 15.4499643,8.71147522 Z" id="Shape"></path>
                                        <path d="M3.52003222,6.58295612 L0.640120487,6.58295612 C0.466675715,6.58295612 0.316662799,6.64627302 0.19001169,6.77287184 C0.06336058,6.89940065 0,7.04931016 0,7.22253038 L0,13.618343 C0,13.7913182 0.06336058,13.9412977 0.190046715,14.0680015 C0.3168029,14.1943904 0.466815816,14.2577423 0.640155512,14.2577423 L3.52003222,14.2577423 C3.69333689,14.2577423 3.84327976,14.1943904 3.97000092,14.0680015 C4.09665203,13.9412977 4.15997758,13.7913532 4.15997758,13.618343 L4.15997758,7.22253038 C4.15997758,7.04931016 4.096617,6.89943565 3.97000092,6.77287184 C3.84331478,6.64623802 3.69337192,6.58295612 3.52003222,6.58295612 Z M2.3699799,12.7936832 C2.24332879,12.9169219 2.0933509,12.9785237 1.92001121,12.9785237 C1.7399817,12.9785237 1.58828757,12.9169219 1.46503391,12.7936832 C1.34171019,12.6704445 1.28006585,12.5189249 1.28006585,12.3390195 C1.28006585,12.1658343 1.34167517,12.0158897 1.46503391,11.8893609 C1.5883226,11.7627621 1.7399817,11.6993752 1.92001121,11.6993752 C2.0933509,11.6993752 2.24332879,11.7627621 2.3699799,11.8893609 C2.49666604,12.0158547 2.56002662,12.1657993 2.56002662,12.3390195 C2.56002662,12.5189249 2.49680614,12.6704095 2.3699799,12.7936832 Z" id="Shape"></path>
                                    </g>
                                </g>
                            </g>
                        </g>
                    </g>
                </g>
            </g>
        </g>
    </g>
</svg>