<?xml version="1.0" encoding="UTF-8"?>
<svg width="15px" height="20px" viewBox="0 0 15 20" version="1.1" xmlns="http://www.w3.org/2000/svg" xmlns:xlink="http://www.w3.org/1999/xlink">
    <!-- Generator: Sketch 43 (38999) - http://www.bohemiancoding.com/sketch -->
    <title>place</title>
    <desc>Created with Sketch.</desc>
    <defs></defs>
    <g id="Page-1" stroke="none" stroke-width="1" fill="none" fill-rule="evenodd">
        <g id="06-tab" transform="translate(-935.000000, -1241.000000)" stroke="#FFFFFF" fill-rule="nonzero">
            <g id="form" transform="translate(0.000000, 252.000000)">
                <g id="03" transform="translate(40.000000, 523.000000)">
                    <g id="Group-4" transform="translate(20.000000, 148.000000)">
                        <path d="M882.500037,337.237037 C882.260837,336.957561 881.997023,336.643424 881.714424,336.299604 C880.842203,335.238427 879.970017,334.113517 879.156831,332.975509 C878.51118,332.071958 877.929811,331.197135 877.428612,330.365071 C876.187518,328.304672 875.5,326.607005 875.5,325.447557 C875.5,321.611345 878.633265,318.5 882.500038,318.5 C886.3668,318.5 889.5,321.611335 889.5,325.447595 C889.5,326.60704 888.812492,328.304698 887.571417,330.365084 C887.070221,331.197151 886.488855,332.071975 885.843206,332.975529 C885.030028,334.113533 884.157851,335.238439 883.285639,336.299611 C883.003044,336.643429 882.739234,336.957563 882.500037,337.237037 Z M882.5,329.5 C884.709139,329.5 886.5,327.709139 886.5,325.5 C886.5,323.290861 884.709139,321.5 882.5,321.5 C880.290861,321.5 878.5,323.290861 878.5,325.5 C878.5,327.709139 880.290861,329.5 882.5,329.5 Z" id="place"></path>
                    </g>
                </g>
            </g>
        </g>
    </g>
</svg>